<svg xmlns="http://www.w3.org/2000/svg" width="55.396" height="81.055" viewBox="0 0 55.396 81.055">
  <g id="i1" transform="translate(-81.987 -1.387)">
    <g id="Group_38" data-name="Group 38" transform="translate(81.987 1.387)">
      <path id="Path_83" data-name="Path 83" d="M142.808,277.832v3.893a9.134,9.134,0,0,1-9.134,9.134h-34.6a9.134,9.134,0,0,1-9.134-9.134v-4.547a26.431,26.431,0,0,1,27.448-26.395c14.3.537,25.415,12.736,25.415,27.049Z" transform="translate(-88.677 -211.07)" fill="#fff"/>
      <circle id="Ellipse_7" data-name="Ellipse 7" cx="15.068" cy="15.068" r="15.068" transform="translate(12.63 1.267)" fill="#0565ff"/>
      <g id="Group_37" data-name="Group 37" transform="translate(0 0)">
        <path id="Path_84" data-name="Path 84" d="M81.987,270.511v4.546a10.409,10.409,0,0,0,10.4,10.4h13.476a1.267,1.267,0,1,0,0-2.533H96.651V270.508a1.267,1.267,0,0,0-2.533,0v12.415H92.385a7.874,7.874,0,0,1-7.865-7.865v-4.546a25.148,25.148,0,0,1,26.131-25.128c13.344.5,24.2,12.058,24.2,25.774v3.9a7.874,7.874,0,0,1-7.865,7.865h-1.733V270.508a1.267,1.267,0,0,0-2.533,0v12.415h-9.21a1.267,1.267,0,1,0,0,2.533h13.476a10.409,10.409,0,0,0,10.4-10.4v-3.9c0-15.062-11.95-27.759-26.637-28.3a27.673,27.673,0,0,0-28.76,27.659Z" transform="translate(-81.987 -204.4)"/>
        <path id="Path_85" data-name="Path 85" d="M153.38,17.722A16.334,16.334,0,1,0,169.714,1.387,16.354,16.354,0,0,0,153.38,17.722Zm30.136,0a13.8,13.8,0,1,1-13.8-13.8,13.817,13.817,0,0,1,13.8,13.8Z" transform="translate(-142.016 -1.387)"/>
        <path id="Path_86" data-name="Path 86" d="M225.378,43.238v1.076a4.4,4.4,0,0,0,.115,8.8h2.3a1.872,1.872,0,1,1,0,3.744h-5.442a1.267,1.267,0,0,0,0,2.533h3.024v1.065a1.267,1.267,0,0,0,2.533,0V59.377a4.4,4.4,0,0,0-.115-8.8h-2.3a1.872,1.872,0,1,1,0-3.744h5.442a1.267,1.267,0,1,0,0-2.533h-3.024V43.238a1.267,1.267,0,1,0-2.533,0Z" transform="translate(-198.946 -35.511)" fill="#fff"/>
      </g>
    </g>
  </g>
</svg>
