<svg xmlns="http://www.w3.org/2000/svg" width="63" height="63" viewBox="0 0 63 63">
  <g id="i8" transform="translate(-0.5 -0.5)">
    <g id="Group_26" data-name="Group 26">
      <path id="Path_25" data-name="Path 25" d="M12.5,50.5h9v13h-9Z" fill="#3e3ef4"/>
      <path id="Path_26" data-name="Path 26" d="M32.416,39.5,17.772,30.714a1.5,1.5,0,0,0-1.544,0L1.584,39.5Z" fill="#3e3ef4"/>
      <path id="Path_27" data-name="Path 27" d="M.5,42.5V62A1.5,1.5,0,0,0,2,63.5H9.5V49A1.5,1.5,0,0,1,11,47.5H23A1.5,1.5,0,0,1,24.5,49V63.5H32A1.5,1.5,0,0,0,33.5,62V42.5Z" fill="#3e3ef4"/>
    </g>
    <path id="Path_28" data-name="Path 28" d="M38,57.5H53A1.5,1.5,0,0,0,54.5,56V39A1.5,1.5,0,0,0,53,37.5H38A1.5,1.5,0,0,0,36.5,39V56A1.5,1.5,0,0,0,38,57.5Zm9-17h4.5V46H47ZM47,49h4.5v5.5H47Zm-7.5-8.5H44V46H39.5Zm0,8.5H44v5.5H39.5Z"/>
    <path id="Path_29" data-name="Path 29" d="M62,60.5H60.5V20.849l.728.437a1.5,1.5,0,1,0,1.544-2.572l-30-18a1.5,1.5,0,0,0-1.544,0l-30,18a1.5,1.5,0,1,0,1.544,2.572l.728-.437V32.2a1.5,1.5,0,0,0,3,0V19.049L32,3.75l25.5,15.3V31.5H30.323a1.5,1.5,0,0,0,0,3H57.5v26H38a1.5,1.5,0,0,0,0,3H62a1.5,1.5,0,1,0,0-3Z"/>
    <path id="Path_30" data-name="Path 30" d="M41.5,27V19a9.5,9.5,0,0,0-19,0v8A1.5,1.5,0,0,0,24,28.5H40A1.5,1.5,0,0,0,41.5,27Zm-11-1.5h-5v-4h5Zm0-7H25.525A6.506,6.506,0,0,1,30.5,12.679Zm3-5.818A6.506,6.506,0,0,1,38.475,18.5H33.5Zm5,12.818h-5v-4h5Z"/>
  </g>
</svg>
